Part 1 – BIOL90042 R Course
…
library(tidyrstats)

theme_set(theme_minimal())

Read data

tumor_data <- readxl::read_xlsx('data/tumor_data.xlsx')

tumor_data

# A tibble: 300 × 42
   donorid status    cell_size cell_density nuclear_area membrane_curvature
   <chr>   <chr>         <dbl>        <dbl>        <dbl>              <dbl>
 1 d001    malignant     0.170        0.654        0.877              2.50 
 2 d002    malignant     2.95         1.42         0.677              4.78 
 3 d003    malignant     4.79         4.66         0.593              6.96 
 4 d004    benign        4.67         1.74         0.423              0.928
 5 d005    malignant    13.0          0.887        0.489              3.01 
 6 d006    benign        3.78         1.02         0.486              0.580
 7 d007    malignant     0.663        8.53         1.03               2.17 
 8 d008    benign        0.950        1.09         0.581              5.10 
 9 d009    malignant     8.39         3.64         0.955              8.78 
10 d010    benign        9.82         7.39         0.403             15.3  
# ℹ 290 more rows
# ℹ 36 more variables: granularity <dbl>, border_diffuseness <dbl>,
#   vascular_density <dbl>, necrosis_extent <dbl>, stromal_thickness <dbl>,
#   mitotic_count <dbl>, texture_1 <dbl>, texture_2 <dbl>, texture_3 <dbl>,
#   texture_4 <dbl>, texture_5 <dbl>, texture_6 <dbl>, texture_7 <dbl>,
#   texture_8 <dbl>, texture_9 <dbl>, texture_10 <dbl>, intensity_1 <dbl>,
#   intensity_2 <dbl>, intensity_3 <dbl>, intensity_4 <dbl>, …
…
Linear model

Lets try one of the simplest ML engines - the linear model, to see whether any of the imaging features are significantly associated with tissue status.

If we define a model where imaging feature is the outcome (y) and tumor status is the predictor (x) we can test for associations quite easily, using lm_test().

Our experimental question is ‘Are any features (y) significantly different between benign (x = 0 ) and malignant (x=1)?’

#marginal effects
dat_long_log |> group_by(key) |> 
  lm_test( value ~  status  ) |> filter(term!='intercept') 

Results for linear model: value ~ status

# A tibble: 40 × 6
   key                term            estimate std.error statistic       p.value
   <chr>              <chr>              <dbl>     <dbl>     <dbl>         <dbl>
 1 granularity        statusmalignant   0.280     0.0446      6.28 0.00000000121
 2 intensity_8        statusmalignant   0.146     0.0240      6.10 0.00000000325
 3 membrane_curvature statusmalignant   0.228     0.0481      4.75 0.00000317   
 4 shape_metric_4     statusmalignant  -0.229     0.0486     -4.72 0.00000361   
 5 vascular_density   statusmalignant   0.108     0.0244      4.43 0.0000133    
 6 stromal_thickness  statusmalignant   0.172     0.0470      3.65 0.000305     
 7 intensity_5        statusmalignant   0.0773    0.0247      3.13 0.00193      
 8 intensity_4        statusmalignant   0.0691    0.0274      2.52 0.0123       
 9 texture_2          statusmalignant  -0.0657    0.0350     -1.88 0.0617       
10 texture_10         statusmalignant  -0.0791    0.0452     -1.75 0.0811       
# ℹ 30 more rows
…
